<?xml version="1.0" encoding="UTF-8" standalone="no"?>
<svg width="95px" height="77px" viewBox="0 0 95 77" version="1.1" xmlns="http://www.w3.org/2000/svg" xmlns:xlink="http://www.w3.org/1999/xlink">
    <!-- Generator: Sketch 41 (35326) - http://www.bohemiancoding.com/sketch -->
    <title>Partyflock-02</title>
    <desc>Created with Sketch.</desc>
    <defs></defs>
    <g id="Page-1" stroke="none" stroke-width="1" fill="none" fill-rule="evenodd">
        <g id="PartyFlock_Calendar" transform="translate(-44.000000, -22.000000)" fill="#FFFFFF">
            <g id="Nav-and-logo" transform="translate(44.000000, 22.000000)">
                <g id="Partyflock-02">
                    <g id="Layer_1">
                        <g id="Group" transform="translate(0.000000, 66.206587)">
                            <path d="M0.225253012,0.254481568 L4.96037349,0.254481568 C6.81733735,0.254481568 8.56281928,1.11033963 8.56281928,3.48044349 C8.56281928,5.96296061 7.15246988,6.93008252 4.96037349,6.93008252 L2.82321687,6.93008252 L2.82321687,10.2679979 L0.225253012,10.2679979 L0.225253012,0.254481568 Z M2.82321687,4.91055174 L4.56892771,4.91055174 C5.39325301,4.91055174 5.966,4.57423147 5.966,3.66228172 C5.966,2.70872296 5.36486747,2.34412696 4.56892771,2.34412696 L2.82321687,2.34412696 L2.82321687,4.91055174 L2.82321687,4.91055174 Z" id="Shape"></path>
                            <path d="M11.4675301,0.254481568 L14.1071566,0.254481568 L17.8359639,10.2679979 L15.1262892,10.2679979 L14.5114217,8.47329369 L11.0344217,8.47329369 L10.4062771,10.2679979 L7.73872289,10.2679979 L11.4675301,0.254481568 Z M11.6348675,6.53744068 L13.8976988,6.53744068 L12.7945542,3.03170996 L12.7659398,3.03170996 L11.6348675,6.53744068 Z" id="Shape"></path>
                            <path d="M18.5890964,0.254481568 L23.6726265,0.254481568 C25.4181084,0.254481568 27.1640482,1.05424794 27.1640482,3.07331896 C27.1640482,4.15354379 26.6611205,5.17721716 25.5994096,5.58411181 L25.5994096,5.61192777 C26.6469277,5.87813342 26.9820602,7.0567486 27.0521084,8.01007747 C27.0942289,8.44524785 27.1219277,9.87512622 27.471253,10.2679979 L24.9012169,10.2679979 C24.6780241,9.91742487 24.6494096,8.964096 24.6082048,8.66961461 C24.5383855,7.65973428 24.3843253,6.6218081 23.1557349,6.6218081 L21.1861446,6.6218081 L21.1861446,10.2679979 L18.5890964,10.2679979 L18.5890964,0.254481568 Z M21.1861446,4.60227732 L23.3651928,4.60227732 C24.1471687,4.60227732 24.5663133,4.19538267 24.5663133,3.42458168 C24.5663133,2.68113688 23.9796024,2.34435685 23.2537108,2.34435685 L21.1863735,2.34435685 L21.1863735,4.60227732 L21.1861446,4.60227732 Z" id="Shape"></path>
                            <polygon id="Shape" points="36.3245663 2.498609 33.3493494 2.498609 33.3493494 10.2679979 30.7516145 10.2679979 30.7516145 2.498609 27.7773133 2.498609 27.7773133 0.254481568 36.3245663 0.254481568"></polygon>
                            <polygon id="Shape" points="42.538253 6.53744068 42.538253 10.2682278 39.9402892 10.2682278 39.9402892 6.53744068 36.3094578 0.254711452 39.2558313 0.254711452 41.2386988 4.32204875 43.2220241 0.254711452 46.1693133 0.254711452"></polygon>
                            <polygon id="Shape" points="46.7825783 0.254481568 54.1284819 0.254481568 54.1284819 2.34412696 49.3805422 2.34412696 49.3805422 4.39147371 53.4859157 4.39147371 53.4859157 6.41146426 49.3805422 6.41146426 49.3805422 10.2677681 46.7825783 10.2677681 46.7825783 0.254481568"></polygon>
                            <polygon id="Shape" points="55.3151807 0.254481568 57.9122289 0.254481568 57.9122289 8.02433028 62.5631084 8.02433028 62.5631084 10.2679979 55.3151807 10.2679979"></polygon>
                            <path d="M68.3853494,0.0443676085 C71.5137108,0.0443676085 73.3015422,2.35837977 73.3015422,5.26112481 C73.3015422,8.16432962 71.5137108,10.4783418 68.3853494,10.4783418 C65.2576747,10.4783418 63.4700723,8.16432962 63.4700723,5.26112481 C63.4703012,2.35860966 65.2576747,0.0443676085 68.3853494,0.0443676085 Z M68.3853494,8.23444424 C70.0616988,8.23444424 70.7042651,6.76180745 70.7042651,5.26112481 C70.7042651,3.76044218 70.0616988,2.28780539 68.3853494,2.28780539 C66.7096867,2.28780539 66.0678072,3.76044218 66.0678072,5.26112481 C66.0678072,6.76180745 66.7096867,8.23444424 68.3853494,8.23444424 Z" id="Shape"></path>
                            <path d="M81.330759,3.83078668 C81.1778434,2.82090634 80.4231084,2.28803527 79.3197349,2.28803527 C77.6443012,2.28803527 77.0017349,3.76067206 77.0017349,5.2613547 C77.0017349,6.76203733 77.6443012,8.23467412 79.3197349,8.23467412 C80.5483253,8.23467412 81.233241,7.54778078 81.330759,6.38387818 L83.928494,6.38387818 C83.7746627,8.97811892 81.903506,10.4788016 79.3755904,10.4788016 C76.3449759,10.4788016 74.404,8.16478939 74.404,5.26158458 C74.404,2.35883954 76.3449759,0.0448273765 79.3755904,0.0448273765 C81.5404458,0.0448273765 83.8589036,1.41930371 83.928494,3.83124644 L81.330759,3.83124644 L81.330759,3.83078668 Z" id="Shape"></path>
                            <polygon id="Shape" points="85.31 0.254481568 87.9079639 0.254481568 87.9079639 4.0974521 91.1894699 0.254481568 94.4155783 0.254481568 90.7291205 4.19538267 94.8763855 10.2679979 91.6502771 10.2679979 88.968759 6.06089119 87.9079639 7.18249513 87.9079639 10.2679979 85.31 10.2679979"></polygon>
                        </g>
                        <path d="M47.0600241,59.7914444 L19.7103253,47.3880542 L19.7657229,0.0701146145 L73.5805904,0.125746538 L73.5805904,47.8059833 L47.0600241,59.7914444 Z M23.0282289,45.2395585 L47.0618554,56.1392776 L70.2658916,45.6535795 L70.2658916,3.45101834 L23.0765301,3.40251282 L23.0282289,45.2395585 Z" id="Shape"></path>
                        <path d="M47.1818072,13.0808583 C47.1863855,12.818101 47.1982892,12.6705154 47.1982892,12.6705154 C47.1815783,12.7530438 47.1646386,12.8335032 47.1476988,12.915112 C47.1339639,12.8486755 47.12,12.7831586 47.106494,12.7162624 C47.106494,12.7162624 47.1129036,12.8523537 47.1096988,13.0978698 C45.7545181,19.5166903 43.3923373,23.1302366 40.7753735,25.0598828 C39.8221687,25.6789603 38.7233735,26.224475 37.4622771,26.6653925 C32.5472289,27.9980299 27.8164578,25.2785024 27.8164578,25.2785024 L29.2767108,27.835502 C29.2691566,27.835502 29.2618313,27.8359617 29.2538193,27.835502 C29.2929639,27.8892948 29.3295904,27.942398 29.3682771,27.9957311 L37.8118313,42.7832481 C40.1344096,41.9391141 48.927747,40.0952147 55.9744578,42.9669254 L65.9693735,25.4621797 C65.9698313,25.4624096 51.5408193,33.9163931 47.1818072,13.0808583 Z" id="Shape"></path>
                    </g>
                </g>
            </g>
        </g>
    </g>
</svg>